<?xml version="1.0" encoding="UTF-8" standalone="no"?>
<!-- Created with Inkscape (http://www.inkscape.org/) -->

<svg
   xmlns:dc="http://purl.org/dc/elements/1.1/"
   xmlns:cc="http://creativecommons.org/ns#"
   xmlns:rdf="http://www.w3.org/1999/02/22-rdf-syntax-ns#"
   xmlns:svg="http://www.w3.org/2000/svg"
   xmlns="http://www.w3.org/2000/svg"
   xmlns:xlink="http://www.w3.org/1999/xlink"
   xmlns:sodipodi="http://sodipodi.sourceforge.net/DTD/sodipodi-0.dtd"
   xmlns:inkscape="http://www.inkscape.org/namespaces/inkscape"
   width="1280"
   height="960"
   viewBox="0 0 338.66666 254.00001"
   version="1.1"
   id="svg8"
   inkscape:version="0.92.1 r15371"
   sodipodi:docname="Emmabuntus-Wallpaper-04-1280x9601.svg">
  <title
     id="title4532">Fond d'écran pour Emmabuntus</title>
  <defs
     id="defs2">
    <linearGradient
       inkscape:collect="always"
       id="linearGradient6124">
      <stop
         style="stop-color:#004455;stop-opacity:1;"
         offset="0"
         id="stop6120" />
      <stop
         style="stop-color:#004455;stop-opacity:0;"
         offset="1"
         id="stop6122" />
    </linearGradient>
    <radialGradient
       inkscape:collect="always"
       xlink:href="#linearGradient6124"
       id="radialGradient6126"
       cx="170.32092"
       cy="161.91685"
       fx="170.32092"
       fy="161.91685"
       r="137.70424"
       gradientTransform="matrix(1.1590909,0,0,0.90746756,-32.908703,15.653191)"
       gradientUnits="userSpaceOnUse" />
  </defs>
  <sodipodi:namedview
     id="base"
     pagecolor="#ffffff"
     bordercolor="#666666"
     borderopacity="1.0"
     inkscape:pageopacity="0.0"
     inkscape:pageshadow="2"
     inkscape:zoom="0.59178761"
     inkscape:cx="593.25509"
     inkscape:cy="475.82304"
     inkscape:document-units="px"
     inkscape:current-layer="layer1"
     showgrid="false"
     units="px"
     inkscape:window-width="1440"
     inkscape:window-height="847"
     inkscape:window-x="0"
     inkscape:window-y="25"
     inkscape:window-maximized="1"
     inkscape:showpageshadow="false"
     borderlayer="false"
     showborder="true"
     fit-margin-top="0"
     fit-margin-left="0"
     fit-margin-right="0"
     fit-margin-bottom="0" />
  <metadata
     id="metadata5">
    <rdf:RDF>
      <cc:Work
         rdf:about="">
        <dc:format>image/svg+xml</dc:format>
        <dc:type
           rdf:resource="http://purl.org/dc/dcmitype/StillImage" />
        <dc:title>Fond d'écran pour Emmabuntus</dc:title>
        <cc:license
           rdf:resource="http://artlibre.org/licence/lal" />
        <dc:creator>
          <cc:Agent>
            <dc:title>Odysseus Libre</dc:title>
          </cc:Agent>
        </dc:creator>
      </cc:Work>
      <cc:License
         rdf:about="http://artlibre.org/licence/lal">
        <cc:permits
           rdf:resource="http://creativecommons.org/ns#Reproduction" />
        <cc:permits
           rdf:resource="http://creativecommons.org/ns#Distribution" />
        <cc:permits
           rdf:resource="http://creativecommons.org/ns#DerivativeWorks" />
        <cc:requires
           rdf:resource="http://creativecommons.org/ns#ShareAlike" />
        <cc:requires
           rdf:resource="http://creativecommons.org/ns#Notice" />
        <cc:requires
           rdf:resource="http://creativecommons.org/ns#Attribution" />
      </cc:License>
    </rdf:RDF>
  </metadata>
  <g
     inkscape:label="fond"
     inkscape:groupmode="layer"
     id="layer1"
     transform="translate(1.7883669,-44.665484)">
    <rect
       style="fill:#00222b;fill-opacity:1;stroke:none;stroke-width:22.26177406;stroke-miterlimit:4;stroke-dasharray:none;stroke-opacity:1"
       id="rect5578"
       width="344.21857"
       height="273.49725"
       x="-3.9050336"
       y="30.989063" />
    <rect
       style="fill:url(#radialGradient6126);fill-opacity:1;stroke:none;stroke-width:29.59687233;stroke-miterlimit:4;stroke-dasharray:none;stroke-opacity:1"
       id="rect6118"
       width="319.22348"
       height="249.92427"
       x="4.8969903"
       y="37.625359" />
  </g>
  <g
     inkscape:groupmode="layer"
     id="layer2"
     inkscape:label="logo"
     transform="translate(1.7883669,-18.598834)">
    <g
       id="g5134"
       style="fill:#164450"
       transform="matrix(0.38272045,0.66483406,-0.66483406,0.38272045,196.0273,-29.445513)">
      <path
         inkscape:connector-curvature="0"
         id="path5092"
         d="m 171.80858,118.28418 a 17.548349,17.548349 0 0 0 -17.54828,17.54829 17.548349,17.548349 0 0 0 17.54828,17.54828 17.548349,17.548349 0 0 0 17.54829,-17.54828 17.548349,17.548349 0 0 0 -17.54829,-17.54829 z m 0,5.36505 a 12.183249,12.183249 0 0 1 12.18324,12.18324 12.183249,12.183249 0 0 1 -12.18324,12.18323 12.183249,12.183249 0 0 1 -12.18323,-12.18323 12.183249,12.183249 0 0 1 12.18323,-12.18324 z"
         style="fill:#164450;fill-opacity:1;stroke:none;stroke-width:22.2838707;stroke-miterlimit:4;stroke-dasharray:none;stroke-opacity:1" />
      <g
         transform="matrix(0.19045733,0,0,0.19045733,138.5809,110.07781)"
         id="g4671"
         style="fill:#164450">
        <circle
           style="fill:#164450;fill-opacity:1;stroke:none;stroke-width:10;stroke-miterlimit:4;stroke-dasharray:none;stroke-opacity:1"
           id="path4488"
           cx="73.613228"
           cy="134.86874"
           r="21.00968" />
        <rect
           style="fill:#164450;fill-opacity:1;stroke:none;stroke-width:28.44329643;stroke-miterlimit:4;stroke-dasharray:none;stroke-opacity:1"
           id="rect4600-7"
           width="5.3453903"
           height="51.850277"
           x="105.80254"
           y="28.647593"
           ry="2.0684953"
           transform="rotate(17.52613)" />
        <rect
           style="fill:#164450;fill-opacity:1;stroke:none;stroke-width:28.44329643;stroke-miterlimit:4;stroke-dasharray:none;stroke-opacity:1"
           id="rect4600-7-5"
           width="5.3453903"
           height="51.850273"
           x="-29.984787"
           y="176.50999"
           ry="2.0684953"
           transform="matrix(-0.95357971,0.30114072,0.30114072,0.95357971,0,0)" />
        <rect
           style="fill:#164450;fill-opacity:1;stroke:none;stroke-width:28.44329643;stroke-miterlimit:4;stroke-dasharray:none;stroke-opacity:1"
           id="rect4600-7-3"
           width="5.3453903"
           height="51.850273"
           x="-53.692364"
           y="67.82547"
           ry="2.0684953"
           transform="rotate(-47.08969)" />
        <rect
           style="fill:#164450;fill-opacity:1;stroke:none;stroke-width:28.44329643;stroke-miterlimit:4;stroke-dasharray:none;stroke-opacity:1"
           id="rect4600-7-3-5"
           width="5.3453903"
           height="51.850269"
           x="144.11824"
           y="-116.05782"
           ry="2.0684953"
           transform="matrix(0.68085266,0.73242041,0.73242041,-0.68085266,0,0)" />
      </g>
      <g
         id="g4671-0"
         transform="matrix(-0.12543758,0.14331576,-0.14331576,-0.12543758,213.14803,127.37763)"
         style="fill:#164450">
        <circle
           style="fill:#164450;fill-opacity:1;stroke:none;stroke-width:10;stroke-miterlimit:4;stroke-dasharray:none;stroke-opacity:1"
           id="path4488-9"
           cx="73.613228"
           cy="134.86874"
           r="21.00968" />
        <rect
           style="fill:#164450;fill-opacity:1;stroke:none;stroke-width:28.44329643;stroke-miterlimit:4;stroke-dasharray:none;stroke-opacity:1"
           id="rect4600-7-36"
           width="5.3453903"
           height="51.850277"
           x="105.80254"
           y="28.647593"
           ry="2.0684953"
           transform="rotate(17.52613)" />
        <rect
           style="fill:#164450;fill-opacity:1;stroke:none;stroke-width:28.44329643;stroke-miterlimit:4;stroke-dasharray:none;stroke-opacity:1"
           id="rect4600-7-5-0"
           width="5.3453903"
           height="51.850273"
           x="-29.984787"
           y="176.50999"
           ry="2.0684953"
           transform="matrix(-0.95357971,0.30114072,0.30114072,0.95357971,0,0)" />
        <rect
           style="fill:#164450;fill-opacity:1;stroke:none;stroke-width:28.44329643;stroke-miterlimit:4;stroke-dasharray:none;stroke-opacity:1"
           id="rect4600-7-3-6"
           width="5.3453903"
           height="51.850273"
           x="-53.692364"
           y="67.82547"
           ry="2.0684953"
           transform="rotate(-47.08969)" />
        <rect
           style="fill:#164450;fill-opacity:1;stroke:none;stroke-width:28.44329643;stroke-miterlimit:4;stroke-dasharray:none;stroke-opacity:1"
           id="rect4600-7-3-5-2"
           width="5.3453903"
           height="51.850269"
           x="144.11824"
           y="-116.05782"
           ry="2.0684953"
           transform="matrix(0.68085266,0.73242041,0.73242041,-0.68085266,0,0)" />
      </g>
      <g
         id="g4671-0-6"
         transform="matrix(-0.11560277,-0.15136048,0.15136048,-0.11560277,171.74822,177.7811)"
         style="fill:#164450">
        <circle
           style="fill:#164450;fill-opacity:1;stroke:none;stroke-width:10;stroke-miterlimit:4;stroke-dasharray:none;stroke-opacity:1"
           id="path4488-9-1"
           cx="73.613228"
           cy="134.86874"
           r="21.00968" />
        <rect
           style="fill:#164450;fill-opacity:1;stroke:none;stroke-width:28.44329643;stroke-miterlimit:4;stroke-dasharray:none;stroke-opacity:1"
           id="rect4600-7-36-8"
           width="5.3453903"
           height="51.850277"
           x="105.80254"
           y="28.647593"
           ry="2.0684953"
           transform="rotate(17.52613)" />
        <rect
           style="fill:#164450;fill-opacity:1;stroke:none;stroke-width:28.44329643;stroke-miterlimit:4;stroke-dasharray:none;stroke-opacity:1"
           id="rect4600-7-5-0-7"
           width="5.3453903"
           height="51.850273"
           x="-29.984787"
           y="176.50999"
           ry="2.0684953"
           transform="matrix(-0.95357971,0.30114072,0.30114072,0.95357971,0,0)" />
        <rect
           style="fill:#164450;fill-opacity:1;stroke:none;stroke-width:28.44329643;stroke-miterlimit:4;stroke-dasharray:none;stroke-opacity:1"
           id="rect4600-7-3-6-9"
           width="5.3453903"
           height="51.850273"
           x="-53.692364"
           y="67.82547"
           ry="2.0684953"
           transform="rotate(-47.08969)" />
        <rect
           style="fill:#164450;fill-opacity:1;stroke:none;stroke-width:28.44329643;stroke-miterlimit:4;stroke-dasharray:none;stroke-opacity:1"
           id="rect4600-7-3-5-2-2"
           width="5.3453903"
           height="51.850269"
           x="144.11824"
           y="-116.05782"
           ry="2.0684953"
           transform="matrix(0.68085266,0.73242041,0.73242041,-0.68085266,0,0)" />
      </g>
      <path
         inkscape:connector-curvature="0"
         id="path4773"
         d="m 171.53228,126.76192 a 9.0705284,9.0705284 0 0 0 -8.51794,5.97641 h 4.16991 a 5.340591,5.340591 0 0 1 4.34803,-2.24645 5.340591,5.340591 0 0 1 5.3406,5.34059 5.340591,5.340591 0 0 1 -5.3406,5.34059 5.340591,5.340591 0 0 1 -4.34479,-2.24646 h -4.16955 a 9.0705284,9.0705284 0 0 0 8.51434,5.97641 9.0705284,9.0705284 0 0 0 9.07055,-9.07054 9.0705284,9.0705284 0 0 0 -9.07055,-9.07055 z"
         style="fill:#164450;fill-opacity:1;stroke:none;stroke-width:4.93408966;stroke-miterlimit:4;stroke-dasharray:none;stroke-opacity:1" />
    </g>
    <g
       id="g5134-1"
       style="fill:#00222b"
       transform="matrix(0.6232282,0,0,0.6232282,64.132396,50.888428)">
      <path
         inkscape:connector-curvature="0"
         id="path5092-4"
         d="m 171.80858,118.28418 a 17.548349,17.548349 0 0 0 -17.54828,17.54829 17.548349,17.548349 0 0 0 17.54828,17.54828 17.548349,17.548349 0 0 0 17.54829,-17.54828 17.548349,17.548349 0 0 0 -17.54829,-17.54829 z m 0,5.36505 a 12.183249,12.183249 0 0 1 12.18324,12.18324 12.183249,12.183249 0 0 1 -12.18324,12.18323 12.183249,12.183249 0 0 1 -12.18323,-12.18323 12.183249,12.183249 0 0 1 12.18323,-12.18324 z"
         style="fill:#00222b;fill-opacity:1;stroke:none;stroke-width:22.2838707;stroke-miterlimit:4;stroke-dasharray:none;stroke-opacity:1" />
      <g
         transform="matrix(0.19045733,0,0,0.19045733,138.5809,110.07781)"
         id="g4671-9"
         style="fill:#00222b">
        <circle
           style="fill:#00222b;fill-opacity:1;stroke:none;stroke-width:10;stroke-miterlimit:4;stroke-dasharray:none;stroke-opacity:1"
           id="path4488-2"
           cx="73.613228"
           cy="134.86874"
           r="21.00968" />
        <rect
           style="fill:#00222b;fill-opacity:1;stroke:none;stroke-width:28.44329643;stroke-miterlimit:4;stroke-dasharray:none;stroke-opacity:1"
           id="rect4600-7-0"
           width="5.3453903"
           height="51.850277"
           x="105.80254"
           y="28.647593"
           ry="2.0684953"
           transform="rotate(17.52613)" />
        <rect
           style="fill:#00222b;fill-opacity:1;stroke:none;stroke-width:28.44329643;stroke-miterlimit:4;stroke-dasharray:none;stroke-opacity:1"
           id="rect4600-7-5-6"
           width="5.3453903"
           height="51.850273"
           x="-29.984787"
           y="176.50999"
           ry="2.0684953"
           transform="matrix(-0.95357971,0.30114072,0.30114072,0.95357971,0,0)" />
        <rect
           style="fill:#00222b;fill-opacity:1;stroke:none;stroke-width:28.44329643;stroke-miterlimit:4;stroke-dasharray:none;stroke-opacity:1"
           id="rect4600-7-3-8"
           width="5.3453903"
           height="51.850273"
           x="-53.692364"
           y="67.82547"
           ry="2.0684953"
           transform="rotate(-47.08969)" />
        <rect
           style="fill:#00222b;fill-opacity:1;stroke:none;stroke-width:28.44329643;stroke-miterlimit:4;stroke-dasharray:none;stroke-opacity:1"
           id="rect4600-7-3-5-9"
           width="5.3453903"
           height="51.850269"
           x="144.11824"
           y="-116.05782"
           ry="2.0684953"
           transform="matrix(0.68085266,0.73242041,0.73242041,-0.68085266,0,0)" />
      </g>
      <g
         id="g4671-0-2"
         transform="matrix(-0.12543758,0.14331576,-0.14331576,-0.12543758,213.14803,127.37763)"
         style="fill:#00222b">
        <circle
           style="fill:#00222b;fill-opacity:1;stroke:none;stroke-width:10;stroke-miterlimit:4;stroke-dasharray:none;stroke-opacity:1"
           id="path4488-9-6"
           cx="73.613228"
           cy="134.86874"
           r="21.00968" />
        <rect
           style="fill:#00222b;fill-opacity:1;stroke:none;stroke-width:28.44329643;stroke-miterlimit:4;stroke-dasharray:none;stroke-opacity:1"
           id="rect4600-7-36-6"
           width="5.3453903"
           height="51.850277"
           x="105.80254"
           y="28.647593"
           ry="2.0684953"
           transform="rotate(17.52613)" />
        <rect
           style="fill:#00222b;fill-opacity:1;stroke:none;stroke-width:28.44329643;stroke-miterlimit:4;stroke-dasharray:none;stroke-opacity:1"
           id="rect4600-7-5-0-4"
           width="5.3453903"
           height="51.850273"
           x="-29.984787"
           y="176.50999"
           ry="2.0684953"
           transform="matrix(-0.95357971,0.30114072,0.30114072,0.95357971,0,0)" />
        <rect
           style="fill:#00222b;fill-opacity:1;stroke:none;stroke-width:28.44329643;stroke-miterlimit:4;stroke-dasharray:none;stroke-opacity:1"
           id="rect4600-7-3-6-95"
           width="5.3453903"
           height="51.850273"
           x="-53.692364"
           y="67.82547"
           ry="2.0684953"
           transform="rotate(-47.08969)" />
        <rect
           style="fill:#00222b;fill-opacity:1;stroke:none;stroke-width:28.44329643;stroke-miterlimit:4;stroke-dasharray:none;stroke-opacity:1"
           id="rect4600-7-3-5-2-0"
           width="5.3453903"
           height="51.850269"
           x="144.11824"
           y="-116.05782"
           ry="2.0684953"
           transform="matrix(0.68085266,0.73242041,0.73242041,-0.68085266,0,0)" />
      </g>
      <g
         id="g4671-0-6-4"
         transform="matrix(-0.11560277,-0.15136048,0.15136048,-0.11560277,171.74822,177.7811)"
         style="fill:#00222b">
        <circle
           style="fill:#00222b;fill-opacity:1;stroke:none;stroke-width:10;stroke-miterlimit:4;stroke-dasharray:none;stroke-opacity:1"
           id="path4488-9-1-8"
           cx="73.613228"
           cy="134.86874"
           r="21.00968" />
        <rect
           style="fill:#00222b;fill-opacity:1;stroke:none;stroke-width:28.44329643;stroke-miterlimit:4;stroke-dasharray:none;stroke-opacity:1"
           id="rect4600-7-36-8-7"
           width="5.3453903"
           height="51.850277"
           x="105.80254"
           y="28.647593"
           ry="2.0684953"
           transform="rotate(17.52613)" />
        <rect
           style="fill:#00222b;fill-opacity:1;stroke:none;stroke-width:28.44329643;stroke-miterlimit:4;stroke-dasharray:none;stroke-opacity:1"
           id="rect4600-7-5-0-7-17"
           width="5.3453903"
           height="51.850273"
           x="-29.984787"
           y="176.50999"
           ry="2.0684953"
           transform="matrix(-0.95357971,0.30114072,0.30114072,0.95357971,0,0)" />
        <rect
           style="fill:#00222b;fill-opacity:1;stroke:none;stroke-width:28.44329643;stroke-miterlimit:4;stroke-dasharray:none;stroke-opacity:1"
           id="rect4600-7-3-6-9-2"
           width="5.3453903"
           height="51.850273"
           x="-53.692364"
           y="67.82547"
           ry="2.0684953"
           transform="rotate(-47.08969)" />
        <rect
           style="fill:#00222b;fill-opacity:1;stroke:none;stroke-width:28.44329643;stroke-miterlimit:4;stroke-dasharray:none;stroke-opacity:1"
           id="rect4600-7-3-5-2-2-7"
           width="5.3453903"
           height="51.850269"
           x="144.11824"
           y="-116.05782"
           ry="2.0684953"
           transform="matrix(0.68085266,0.73242041,0.73242041,-0.68085266,0,0)" />
      </g>
      <path
         inkscape:connector-curvature="0"
         id="path4773-2"
         d="m 171.53228,126.76192 a 9.0705284,9.0705284 0 0 0 -8.51794,5.97641 h 4.16991 a 5.340591,5.340591 0 0 1 4.34803,-2.24645 5.340591,5.340591 0 0 1 5.3406,5.34059 5.340591,5.340591 0 0 1 -5.3406,5.34059 5.340591,5.340591 0 0 1 -4.34479,-2.24646 h -4.16955 a 9.0705284,9.0705284 0 0 0 8.51434,5.97641 9.0705284,9.0705284 0 0 0 9.07055,-9.07054 9.0705284,9.0705284 0 0 0 -9.07055,-9.07055 z"
         style="fill:#00222b;fill-opacity:1;stroke:none;stroke-width:4.93408966;stroke-miterlimit:4;stroke-dasharray:none;stroke-opacity:1" />
    </g>
  </g>
  <g
     inkscape:groupmode="layer"
     id="layer3"
     inkscape:label="reflets"
     transform="translate(1.7883669,-18.598834)" />
</svg>
