<?xml version="1.0" encoding="UTF-8" standalone="no"?>
<!-- Created with Inkscape (http://www.inkscape.org/) -->

<svg
   xmlns:dc="http://purl.org/dc/elements/1.1/"
   xmlns:cc="http://creativecommons.org/ns#"
   xmlns:rdf="http://www.w3.org/1999/02/22-rdf-syntax-ns#"
   xmlns:svg="http://www.w3.org/2000/svg"
   xmlns="http://www.w3.org/2000/svg"
   xmlns:sodipodi="http://sodipodi.sourceforge.net/DTD/sodipodi-0.dtd"
   xmlns:inkscape="http://www.inkscape.org/namespaces/inkscape"
   version="1.0"
   x="0.0000000"
   y="0.0000000"
   width="124.10000"
   height="98.612503"
   id="svg1"
   sodipodi:docname="wifi-radar.svg"
   inkscape:version="0.92.4 (5da689c313, 2019-01-14)">
  <sodipodi:namedview
     pagecolor="#ffffff"
     bordercolor="#666666"
     borderopacity="1"
     objecttolerance="10"
     gridtolerance="10"
     guidetolerance="10"
     inkscape:pageopacity="0"
     inkscape:pageshadow="2"
     inkscape:window-width="1280"
     inkscape:window-height="911"
     id="namedview10"
     showgrid="false"
     inkscape:zoom="2.3932057"
     inkscape:cx="-41.787618"
     inkscape:cy="49.306253"
     inkscape:window-x="0"
     inkscape:window-y="25"
     inkscape:window-maximized="1"
     inkscape:current-layer="g2165" />
  <defs
     id="defs3" />
  <metadata
     id="metadata4">
    <rdf:RDF>
      <cc:Work
         rdf:about="">
        <dc:format>image/svg+xml</dc:format>
        <dc:type
           rdf:resource="http://purl.org/dc/dcmitype/StillImage" />
      </cc:Work>
    </rdf:RDF>
  </metadata>
  <g
     transform="matrix(0.726012,0.000000,0.000000,1.000000,-142.1571,-397.0102)"
     id="g2165">
    <path
       d="M 222.09269,449.99998 A 70.866142,70.866142 0 0 1 344.83645,449.99997"
       style="fill:none;fill-opacity:0.75;fill-rule:evenodd;stroke:#1050ff;stroke-width:12.5;stroke-linecap:round;stroke-linejoin:round;stroke-miterlimit:4;stroke-opacity:1"
       id="path915" />
    <path
       d="M 237.43566,458.85824 A 53.149605,53.149605 0 0 1 329.49348,458.85824"
       style="fill:none;fill-opacity:0.75;fill-rule:evenodd;stroke:#1064f0;stroke-width:9.375;stroke-linecap:round;stroke-linejoin:round;stroke-miterlimit:4;stroke-opacity:1"
       id="path916" />
    <path
       d="M 252.77863,467.71651 A 35.433071,35.433071 0 0 1 314.15051,467.71651"
       style="fill:none;fill-opacity:0.75;fill-rule:evenodd;stroke:#1074f0;stroke-width:6.25;stroke-linecap:round;stroke-linejoin:round;stroke-miterlimit:4;stroke-opacity:1"
       id="path917" />
    <path
       d="M 268.12160,476.57478 A 17.716536,17.716536 0 0 1 298.80754,476.57478"
       style="fill:none;fill-opacity:0.75;fill-rule:evenodd;stroke:#1074f0;stroke-width:3.125;stroke-linecap:butt;stroke-linejoin:miter;stroke-miterlimit:4;stroke-opacity:1"
       id="path918" />
  </g>
</svg>
